1 280.000000 39.000000
2 278.000000 58.000000
3 265.000000 86.000000
4 251.000000 116.000000
5 239.000000 136.000000
6 223.000000 155.000000
7 193.000000 162.000000
8 157.000000 163.000000
9 115.000000 161.000000
10 95.000000 158.000000
11 75.000000 154.000000
12 46.000000 143.000000
13 37.000000 115.000000
14 34.000000 86.000000
15 34.000000 64.000000
16 36.000000 43.000000
17 45.000000 25.000000
18 61.000000 19.000000
19 80.000000 16.000000
20 105.000000 13.000000
21 129.000000 12.000000
22 157.000000 11.000000
23 187.000000 11.000000
24 245.000000 17.000000
25 268.000000 24.000000
26 320.000000 47.000000
27 360.000000 39.000000
28 362.000000 58.000000
29 375.000000 86.000000
30 389.000000 116.000000
31 401.000000 136.000000
32 417.000000 155.000000
33 447.000000 162.000000
34 483.000000 163.000000
35 525.000000 161.000000
36 545.000000 158.000000
37 565.000000 154.000000
38 594.000000 143.000000
39 603.000000 115.000000
40 606.000000 86.000000
41 606.000000 64.000000
42 604.000000 43.000000
43 595.000000 25.000000
44 579.000000 19.000000
45 560.000000 16.000000
46 535.000000 13.000000
47 511.000000 12.000000
48 483.000000 11.000000
49 453.000000 11.000000
50 395.000000 17.000000
51 372.000000 24.000000
52 283.000000 37.000000
53 283.000000 59.000000
54 270.000000 88.000000
55 255.000000 118.000000
56 244.000000 139.000000
57 226.000000 160.000000
58 193.000000 167.000000
59 157.000000 168.000000
60 114.000000 166.000000
61 94.000000 163.000000
62 74.000000 160.000000
63 45.000000 147.000000
64 33.000000 116.000000
65 30.000000 86.000000
66 4.000000 64.000000
67 31.000000 43.000000
68 45.000000 20.000000
69 60.000000 14.000000
70 78.000000 11.000000
71 104.000000 7.000000
72 129.000000 5.000000
73 157.000000 4.000000
74 187.000000 5.000000
75 247.000000 12.000000
76 271.000000 20.000000
77 320.000000 36.000000
78 357.000000 37.000000
79 369.000000 20.000000
80 393.000000 12.000000
81 453.000000 5.000000
82 483.000000 4.000000
83 511.000000 5.000000
84 536.000000 7.000000
85 562.000000 11.000000
86 580.000000 14.000000
87 595.000000 20.000000
88 609.000000 43.000000
89 636.000000 64.000000
90 610.000000 86.000000
91 607.000000 116.000000
92 595.000000 147.000000
93 566.000000 160.000000
94 546.000000 163.000000
95 526.000000 166.000000
96 483.000000 168.000000
97 447.000000 167.000000
98 414.000000 160.000000
99 396.000000 139.000000
100 385.000000 118.000000
101 370.000000 88.000000
102 357.000000 59.000000
