"data/cootes/107_0764.bmp.mat.dat", "data/cootes/107_0764.bmp"
"data/cootes/107_0779.bmp.mat.dat", "data/cootes/107_0779.bmp"
"data/cootes/107_0780.bmp.mat.dat", "data/cootes/107_0780.bmp"
"data/cootes/107_0781.bmp.mat.dat", "data/cootes/107_0781.bmp"
"data/cootes/107_0782.bmp.mat.dat", "data/cootes/107_0782.bmp"
"data/cootes/107_0783.bmp.mat.dat", "data/cootes/107_0783.bmp"
"data/cootes/107_0784.bmp.mat.dat", "data/cootes/107_0784.bmp"
"data/cootes/107_0785.bmp.mat.dat", "data/cootes/107_0785.bmp"
"data/cootes/107_0786.bmp.mat.dat", "data/cootes/107_0786.bmp"
"data/cootes/107_0787.bmp.mat.dat", "data/cootes/107_0787.bmp"
"data/cootes/107_0789.bmp.mat.dat", "data/cootes/107_0789.bmp"
"data/cootes/107_0790.bmp.mat.dat", "data/cootes/107_0790.bmp"
"data/cootes/107_0791.bmp.mat.dat", "data/cootes/107_0791.bmp"
"data/cootes/107_0792.bmp.mat.dat", "data/cootes/107_0792.bmp"
"data/cootes/107_0793.bmp.mat.dat", "data/cootes/107_0793.bmp"
"data/cootes/107_0794.bmp.mat.dat", "data/cootes/107_0794.bmp"
"data/cootes/107_0795.bmp.mat.dat", "data/cootes/107_0795.bmp"
"data/cootes/107_0798.bmp.mat.dat", "data/cootes/107_0798.bmp"
"data/cootes/107_0799.bmp.mat.dat", "data/cootes/107_0799.bmp"
"data/cootes/107_0800.bmp.mat.dat", "data/cootes/107_0800.bmp"
"data/cootes/108_0801.bmp.mat.dat", "data/cootes/108_0801.bmp"
"data/cootes/108_0802.bmp.mat.dat", "data/cootes/108_0802.bmp"
"data/cootes/108_0803.bmp.mat.dat", "data/cootes/108_0803.bmp"
"data/cootes/108_0804.bmp.mat.dat", "data/cootes/108_0804.bmp"
